{
    "editor.minimap.enabled": false,
    "workbench.startupEditor": "newUntitledFile",
    "window.zoomLevel": 0,
    "editor.fontFamily": "'Fira Code', 'monospace', monospace, 'Droid Sans Fallback'",
    "editor.fontLigatures": true,
    "editor.fontSize": 13,
    "explorer.confirmDelete": false,
    "files.autoSave": "afterDelay",
    "editor.renderIndentGuides": true,

    // Excluded files
    "files.exclude": {
        "**/.git": true,
        "**/.svn": true,
        "**/.hg": true,
        "**/CVS": true,
        "**/.DS_Store": true,
        "**/*.pyc": true,
        "**/__pycache__": true,
        // "**/.*": true,
    },

    // python setup
    "python.venvPath": "~/.Envs",
    "python.linting.pylintEnabled": false,
    "python.linting.flake8Enabled": true,
    "python.linting.flake8Path": "~/.local/bin/flake8",
    "python.linting.flake8Args": ["--max-line-length=120"],
    // "python.linting.flake8CategorySeverity.F": "Hint",
    "python.linting.pep8Enabled": false,
    "python.linting.pep8Path": "~/.local/bin/pep8",
    "python.formatting.autopep8Path": "~/.local/bin/autopep8",
    "editor.multiCursorModifier": "ctrlCmd",
    "editor.rulers": [
        120,
    ],
    "workbench.iconTheme": "material-icon-theme",
    "python.jediEnabled": true,
    "workbench.editor.enablePreview": false,
    "python.sortImports.args": ["-w 120"],
    "python.formatting.provider": "yapf",
    "python.formatting.yapfPath": "~/.local/bin/yapf",
    "python.formatting.yapfArgs": [
        "--style={column_limit=120}"
    ],
    "files.trimTrailingWhitespace": true,
    "gitlens.mode.active": "zen",
}